…
homicide_count =
  homicide_raw %>%
  group_by(city_state) %>%
  summarize(
    total_homicide = n(),
    total_unsolved_homicide = sum(disposition == "Closed without arrest" | disposition == "Open/No arrest")
  )

homicide_count
```

    ## # A tibble: 51 × 3
    ##    city_state      total_homicide total_unsolved_homicide
    ##    <chr>                    <int>                   <int>
    ##  1 Albuquerque, NM            378                     146
    ##  2 Atlanta, GA                973                     373
    ##  3 Baltimore, MD             2827                    1825
    ##  4 Baton Rouge, LA            424                     196
    ##  5 Birmingham, AL             800                     347
    ##  6 Boston, MA                 614                     310
    ##  7 Buffalo, NY                521                     319
    ##  8 Charlotte, NC              687                     206
    ##  9 Chicago, IL               5535                    4073
    ## 10 Cincinnati, OH             694                     309
    ## # … with 41 more rows
…
Then are are going to `rerun` the model function to generate 5000
datasets with mu = 0 and alpha = 0.05.

``` r
sim_results_df = 
  rerun(5000, sim_mean_p(mu = 0)) %>% 
  bind_rows()

sim_results_df
```

    ## # A tibble: 5,000 × 2
    ##     mu_hat p_value
    ##      <dbl>   <dbl>
    ##  1 -0.832    0.343
    ##  2 -0.0645   0.940
    ##  3 -0.226    0.821
    ##  4  0.158    0.875
    ##  5 -0.946    0.382
    ##  6 -0.631    0.510
    ##  7  1.28     0.155
    ##  8  0.720    0.382
    ##  9 -0.540    0.618
    ## 10  0.978    0.297
    ## # … with 4,990 more rows
…
